[
{
    "model": "account.user",
    "fields": {
        "password": "pbkdf2_sha256$36000$khPgLmPDAzT1$M1bRdfbdgtMfW2YgJQgtJbCp2hWCgF/X6IbKmCc3uJE=",
        "last_login": "2019-08-08T18:43:03.091Z",
        "email": "niall783@gmail.com",
        "first_name": "Niall",
        "last_name": "ORourke",
        "is_active": true,
        "staff": true,
        "admin": true,
        "full_access": false,
        "timestamp": "2019-06-19T17:47:17.049Z",
        "updated": "2019-06-19T17:48:40.791Z"
    }
},
{
    "model": "account.user",
    "fields": {
        "password": "pbkdf2_sha256$36000$iCxnH7W6SNix$SH31lq1Aij11ks1xSrFJ0Vx33bjMgPfJPiTMZYjyLWk=",
        "last_login": null,
        "email": "niall@engplaybook.com",
        "first_name": "Niall",
        "last_name": "O",
        "is_active": false,
        "staff": false,
        "admin": false,
        "full_access": false,
        "timestamp": "2019-06-19T18:20:18.325Z",
        "updated": "2019-06-19T18:20:18.325Z"
    }
},
{
    "model": "account.user",
    "fields": {
        "password": "pbkdf2_sha256$36000$SJ9LBELSVgM6$HLgxa2bAnDeNUC+qN0gEb+IE6JuuJxGFPl60qtd8Y8o=",
        "last_login": null,
        "email": "niall@admin.com",
        "first_name": "Niall",
        "last_name": "O",
        "is_active": false,
        "staff": false,
        "admin": false,
        "full_access": false,
        "timestamp": "2019-06-19T18:28:31.170Z",
        "updated": "2019-06-19T18:28:31.170Z"
    }
},
{
    "model": "account.user",
    "fields": {
        "password": "pbkdf2_sha256$36000$OgE8O2ReSGKK$L7KlfMJdak5vKe6Lf6KlwEkMlZRLy3o7fAGYvep/uj4=",
        "last_login": null,
        "email": "test@email.com",
        "first_name": null,
        "last_name": null,
        "is_active": true,
        "staff": false,
        "admin": false,
        "full_access": false,
        "timestamp": "2019-08-10T13:02:34.635Z",
        "updated": "2019-08-10T13:02:34.635Z"
    }
},
{
    "model": "account.user",
    "fields": {
        "password": "pbkdf2_sha256$36000$wHVHpUTGaysv$yUKJjVywv5tBH1e4MZPL1n1RvZN/NrMklxgm56VnNAk=",
        "last_login": null,
        "email": "test2@email.com",
        "first_name": null,
        "last_name": null,
        "is_active": true,
        "staff": false,
        "admin": false,
        "full_access": false,
        "timestamp": "2019-08-10T13:28:20.935Z",
        "updated": "2019-08-10T13:28:20.935Z"
    }
},
{
    "model": "account.user",
    "fields": {
        "password": "pbkdf2_sha256$36000$jK4e54ZK7Iv2$B9GCGRmh+7xbhWT8Y/wGApd9VSLc7X1O8dyMe2XrcxE=",
        "last_login": null,
        "email": "test3@email.com",
        "first_name": null,
        "last_name": null,
        "is_active": true,
        "staff": false,
        "admin": false,
        "full_access": false,
        "timestamp": "2019-08-10T14:39:21.372Z",
        "updated": "2019-08-10T14:39:21.372Z"
    }
},
{
    "model": "account.emailactivation",
    "pk": 1,
    "fields": {
        "user": [
            "niall783@gmail.com"
        ],
        "email": "niall783@gmail.com",
        "key": "06hl1o0erl79mhoysbh4b4bzbuoqltisn54gdj4lbrco3",
        "activated": false,
        "forced_expired": false,
        "expires": 7,
        "timestamp": "2019-06-19T17:47:17.058Z",
        "updated": "2019-06-19T17:47:17.058Z"
    }
},
{
    "model": "account.emailactivation",
    "pk": 2,
    "fields": {
        "user": [
            "niall@engplaybook.com"
        ],
        "email": "niall@engplaybook.com",
        "key": "7296qhxxp09vvtglxysd9b7888kjat0e3jlln6p1q",
        "activated": false,
        "forced_expired": false,
        "expires": 7,
        "timestamp": "2019-06-19T18:20:18.335Z",
        "updated": "2019-06-19T18:20:18.335Z"
    }
},
{
    "model": "account.emailactivation",
    "pk": 3,
    "fields": {
        "user": [
            "niall@admin.com"
        ],
        "email": "niall@admin.com",
        "key": "ypejml2qoe0bb1hac0me1yv8d9ff1ackk",
        "activated": false,
        "forced_expired": false,
        "expires": 7,
        "timestamp": "2019-06-19T18:28:31.179Z",
        "updated": "2019-06-19T18:28:31.179Z"
    }
},
{
    "model": "account.emailactivation",
    "pk": 4,
    "fields": {
        "user": [
            "test@email.com"
        ],
        "email": "test@email.com",
        "key": "b9vod59jdz5ev9tp0fr4ib00lkfe2aipbs23c",
        "activated": false,
        "forced_expired": false,
        "expires": 7,
        "timestamp": "2019-08-10T13:02:34.646Z",
        "updated": "2019-08-10T13:02:34.646Z"
    }
},
{
    "model": "account.emailactivation",
    "pk": 5,
    "fields": {
        "user": [
            "test2@email.com"
        ],
        "email": "test2@email.com",
        "key": "avb3uywyu3hyso6clj2bdta5xf5s0a25qd",
        "activated": false,
        "forced_expired": false,
        "expires": 7,
        "timestamp": "2019-08-10T13:28:20.943Z",
        "updated": "2019-08-10T13:28:20.943Z"
    }
},
{
    "model": "account.emailactivation",
    "pk": 6,
    "fields": {
        "user": [
            "test3@email.com"
        ],
        "email": "test3@email.com",
        "key": "kgvrutayoeq2vq285h3jvs6hah97jootsxz9uslith2c3",
        "activated": false,
        "forced_expired": false,
        "expires": 7,
        "timestamp": "2019-08-10T14:39:21.388Z",
        "updated": "2019-08-10T14:39:21.388Z"
    }
},
{
    "model": "loads.load",
    "pk": 2,
    "fields": {
        "user": [
            "niall783@gmail.com"
        ],
        "load_id": "JCASKWLGRO",
        "client_name": null,
        "client_phone_number": null,
        "payment_terms": null,
        "pick_up_location": "D-77, Sector 63 Road, D Block, Sector 63, Noida, Uttar Pradesh, India",
        "pick_up_location_lat": "28.61842870",
        "pick_up_location_lng": "77.38295980",
        "drop_off_location": "Dax, Villefranche-de-Lauragais, France",
        "drop_off_location_lat": "43.41260830",
        "drop_off_location_lng": "1.74577870",
        "pick_up_time": "2019-09-01T16:32:21.612Z",
        "drop_off_time": "2019-09-01T16:39:27.673Z",
        "vehicle_type": "Small Van",
        "weight": "120",
        "notes": "dav",
        "updated": "2019-08-08T18:43:23.111Z",
        "timestamp": "2019-07-10T19:05:58.770Z"
    }
},
{
    "model": "loads.load",
    "pk": 3,
    "fields": {
        "user": [
            "niall783@gmail.com"
        ],
        "load_id": "CGJSPQROD6",
        "client_name": null,
        "client_phone_number": null,
        "payment_terms": null,
        "pick_up_location": "Newcastle2",
        "pick_up_location_lat": "35.24983350",
        "pick_up_location_lng": "-97.59683980",
        "drop_off_location": "Curitiba, State of Paran\u00e1, Brazil",
        "drop_off_location_lat": "-25.42895410",
        "drop_off_location_lng": "-49.26713700",
        "pick_up_time": "2019-09-01T16:32:21.612Z",
        "drop_off_time": "2019-09-01T16:39:27.673Z",
        "vehicle_type": "Small Van",
        "weight": "120",
        "notes": "",
        "updated": "2019-08-10T17:02:29.008Z",
        "timestamp": "2019-07-10T19:07:21.776Z"
    }
},
{
    "model": "loads.load",
    "pk": 4,
    "fields": {
        "user": [
            "niall783@gmail.com"
        ],
        "load_id": "MA5UQFGW9I",
        "client_name": null,
        "client_phone_number": null,
        "payment_terms": null,
        "pick_up_location": "5 Mountain Road, Castlestreet, UK",
        "pick_up_location_lat": "41.96308620",
        "pick_up_location_lng": "-73.01646300",
        "drop_off_location": "140 Balinode, Cornageeha, Caltragh, County Sligo, Ireland",
        "drop_off_location_lat": "54.25856290",
        "drop_off_location_lng": "-8.47625000",
        "pick_up_time": "2019-09-01T16:32:21.612Z",
        "drop_off_time": "2019-09-01T16:39:27.673Z",
        "vehicle_type": "Luton, No Lift",
        "weight": "1200",
        "notes": "orem ipsum dolor sit amet, consectetur adipiscing elit. Aenean est sapien, molestie ac dictum quis, sollicitudin feugiat enim. Mauris id lacinia ipsum. Etiam tristique urna mauris, eget tristique felis tempor id. Sed vel nunc aliquet, tincidunt tortor ut, imperdiet orci. Etiam pharetra cursus purus, nec vestibulum erat. Donec facilisis mauris ex, quis eleifend felis sodales sit amet. Nullam posuere vel dolor quis tincidunt. Quisque at lacus in ipsum blandit fermentum at vitae leo. Aenean ut maximus quam, non pretium lectus. Proin auctor lectus eget tortor tincidunt consequat. Pellentesque ultricies, ligula viverra mollis fermentum, massa velit commodo augue, in facilisis nulla felis id lorem.\r\n\r\nCras tempor interdum mauris at tempor. Cras sit amet nisi sem. Sed tempor massa ac orci elementum, ut finibus arcu faucibus. Sed eu lectus sit amet nulla fringilla fringilla sit amet a sem. Donec faucibus ex ac ornare pharetra. Phasellus elementum nunc eros, ultrices placerat turpis dictum non. In placerat eros nec rhoncus pulvinar. Mauris quis turpis tristique, auctor eros ut, varius ligula.",
        "updated": "2019-08-08T18:43:49.919Z",
        "timestamp": "2019-07-10T20:02:13.593Z"
    }
},
{
    "model": "loads.load",
    "pk": 5,
    "fields": {
        "user": null,
        "load_id": "B5LANLL099",
        "client_name": null,
        "client_phone_number": null,
        "payment_terms": null,
        "pick_up_location": "Belfast, UK",
        "pick_up_location_lat": "54.59728500",
        "pick_up_location_lng": "-5.93012000",
        "drop_off_location": "Dublin, Ireland",
        "drop_off_location_lat": "53.34980530",
        "drop_off_location_lng": "-6.26030970",
        "pick_up_time": "2019-09-01T16:32:21.612Z",
        "drop_off_time": "2019-09-01T16:39:27.673Z",
        "vehicle_type": "Curtain Side",
        "weight": "120",
        "notes": "",
        "updated": "2019-07-14T18:16:59.814Z",
        "timestamp": "2019-07-14T18:16:59.815Z"
    }
},
{
    "model": "loads.load",
    "pk": 6,
    "fields": {
        "user": [
            "niall@admin.com"
        ],
        "load_id": "KVCHUWHXLO",
        "client_name": null,
        "client_phone_number": null,
        "payment_terms": null,
        "pick_up_location": "Sligo, Ireland",
        "pick_up_location_lat": "54.27661030",
        "pick_up_location_lng": "-8.47608880",
        "drop_off_location": "Enniskillen, UK",
        "drop_off_location_lat": "54.34382430",
        "drop_off_location_lng": "-7.63153360",
        "pick_up_time": "2019-09-01T16:32:21.612Z",
        "drop_off_time": "2019-09-01T16:39:27.673Z",
        "vehicle_type": "Luton With Tail Lift",
        "weight": "1200",
        "notes": "",
        "updated": "2019-08-08T18:44:00.974Z",
        "timestamp": "2019-07-14T19:03:58.341Z"
    }
},
{
    "model": "loads.load",
    "pk": 7,
    "fields": {
        "user": [
            "niall@engplaybook.com"
        ],
        "load_id": "P3A5RM5OJQ",
        "client_name": null,
        "client_phone_number": null,
        "payment_terms": null,
        "pick_up_location": "Sligo, County Sligo, Ireland",
        "pick_up_location_lat": "54.27661030",
        "pick_up_location_lng": "-8.47608880",
        "drop_off_location": "Letterkenny, County Donegal, Ireland",
        "drop_off_location_lat": "54.95583920",
        "drop_off_location_lng": "-7.73427870",
        "pick_up_time": "2019-09-01T16:32:21.612Z",
        "drop_off_time": "2019-09-01T16:39:27.673Z",
        "vehicle_type": "Luton With Tail Lift",
        "weight": "500",
        "notes": "",
        "updated": "2019-08-08T18:44:11.274Z",
        "timestamp": "2019-07-14T19:26:22.310Z"
    }
},
{
    "model": "loads.load",
    "pk": 8,
    "fields": {
        "user": null,
        "load_id": "Y2VREUJKLS",
        "client_name": null,
        "client_phone_number": null,
        "payment_terms": null,
        "pick_up_location": "Ballsbridge Hotel, Dublin, Ireland",
        "pick_up_location_lat": "53.33222570",
        "pick_up_location_lng": "-6.23439110",
        "drop_off_location": "Fota Island, Foaty, County Cork, Ireland",
        "drop_off_location_lat": "51.89916700",
        "drop_off_location_lng": "-8.29833300",
        "pick_up_time": "2019-09-01T16:32:21.612Z",
        "drop_off_time": "2019-09-01T16:39:27.673Z",
        "vehicle_type": "XL WB 4m+",
        "weight": "1500",
        "notes": "",
        "updated": "2019-07-14T19:28:34.208Z",
        "timestamp": "2019-07-14T19:28:34.208Z"
    }
},
{
    "model": "loads.load",
    "pk": 9,
    "fields": {
        "user": [
            "niall@admin.com"
        ],
        "load_id": "0X8EG40YTM",
        "client_name": null,
        "client_phone_number": null,
        "payment_terms": null,
        "pick_up_location": "Engineers Ireland, Clyde Road, Ballsbridge, Dublin 4, Ireland",
        "pick_up_location_lat": "53.32851390",
        "pick_up_location_lng": "-6.23887910",
        "drop_off_location": "Kerry, County Kerry, Ireland",
        "drop_off_location_lat": "52.15446070",
        "drop_off_location_lng": "-9.56686330",
        "pick_up_time": "2019-09-01T16:32:21.612Z",
        "drop_off_time": "2019-09-01T16:39:27.673Z",
        "vehicle_type": "Luton With Tail Lift",
        "weight": "522",
        "notes": "",
        "updated": "2019-08-08T18:44:20.544Z",
        "timestamp": "2019-07-14T19:38:10.557Z"
    }
},
{
    "model": "loads.load",
    "pk": 10,
    "fields": {
        "user": [
            "niall783@gmail.com"
        ],
        "load_id": "HNLHPKXFQM",
        "client_name": null,
        "client_phone_number": null,
        "payment_terms": null,
        "pick_up_location": "Dublin Port, Dublin, Ireland",
        "pick_up_location_lat": "53.35107590",
        "pick_up_location_lng": "-6.21450280",
        "drop_off_location": "Bundoran, County Donegal, Ireland",
        "drop_off_location_lat": "54.47914160",
        "drop_off_location_lng": "-8.27793400",
        "pick_up_time": "2019-09-01T16:32:21.612Z",
        "drop_off_time": "2019-09-01T16:39:27.673Z",
        "vehicle_type": "Luton With Tail Lift",
        "weight": "200",
        "notes": "",
        "updated": "2019-08-08T18:44:32.679Z",
        "timestamp": "2019-07-23T18:14:08.771Z"
    }
},
{
    "model": "loads.load",
    "pk": 11,
    "fields": {
        "user": [
            "niall783@gmail.com"
        ],
        "load_id": "CE8G7D5267",
        "client_name": null,
        "client_phone_number": null,
        "payment_terms": null,
        "pick_up_location": "Sligo, County Sligo, Ireland",
        "pick_up_location_lat": "54.27661030",
        "pick_up_location_lng": "-8.47608880",
        "drop_off_location": "Riverstown, County Sligo, Ireland",
        "drop_off_location_lat": "54.13043980",
        "drop_off_location_lng": "-8.39525080",
        "pick_up_time": "2019-09-01T16:32:21.612Z",
        "drop_off_time": "2019-09-01T16:39:27.673Z",
        "vehicle_type": "MWB 3m",
        "weight": "500",
        "notes": "",
        "updated": "2019-08-08T18:45:20.863Z",
        "timestamp": "2019-07-23T19:15:20.127Z"
    }
},
{
    "model": "loads.load",
    "pk": 12,
    "fields": {
        "user": null,
        "load_id": "XKY3EPJYRN",
        "client_name": null,
        "client_phone_number": null,
        "payment_terms": null,
        "pick_up_location": "Dayton, OH, USA",
        "pick_up_location_lat": "39.75894780",
        "pick_up_location_lng": "-84.19160690",
        "drop_off_location": "Faro, Portugal",
        "drop_off_location_lat": "37.01935480",
        "drop_off_location_lng": "-7.93043970",
        "pick_up_time": "2019-09-01T16:32:21.612Z",
        "drop_off_time": "2019-09-01T16:39:27.673Z",
        "vehicle_type": "Luton With Tail Lift",
        "weight": "600",
        "notes": "",
        "updated": "2019-07-23T19:39:33.820Z",
        "timestamp": "2019-07-23T19:38:29.424Z"
    }
},
{
    "model": "loads.load",
    "pk": 13,
    "fields": {
        "user": [
            "niall@admin.com"
        ],
        "load_id": "41AO7U0WWK",
        "client_name": null,
        "client_phone_number": null,
        "payment_terms": null,
        "pick_up_location": "Alicante, Spain",
        "pick_up_location_lat": "38.34599630",
        "pick_up_location_lng": "-0.49068550",
        "drop_off_location": "Xalapa, Ver., Mexico",
        "drop_off_location_lat": "19.54377510",
        "drop_off_location_lng": "-96.91018060",
        "pick_up_time": "2019-09-01T16:32:21.612Z",
        "drop_off_time": "2019-09-01T16:39:27.673Z",
        "vehicle_type": "Luton With Tail Lift",
        "weight": "1235",
        "notes": "",
        "updated": "2019-08-08T18:46:43.929Z",
        "timestamp": "2019-07-23T19:41:11.707Z"
    }
},
{
    "model": "loads.load",
    "pk": 14,
    "fields": {
        "user": [
            "niall783@gmail.com"
        ],
        "load_id": "0DDBRM7WJH",
        "client_name": null,
        "client_phone_number": null,
        "payment_terms": null,
        "pick_up_location": "Valencia, Spain",
        "pick_up_location_lat": "39.46990750",
        "pick_up_location_lng": "-0.37628810",
        "drop_off_location": "Destin, FL, USA",
        "drop_off_location_lat": "30.39353370",
        "drop_off_location_lng": "-86.49578330",
        "pick_up_time": "2019-09-01T16:32:21.612Z",
        "drop_off_time": "2019-09-01T16:39:27.673Z",
        "vehicle_type": "XL WB 4m+",
        "weight": "400",
        "notes": "",
        "updated": "2019-08-08T18:45:09.328Z",
        "timestamp": "2019-07-23T19:42:42.116Z"
    }
},
{
    "model": "loads.load",
    "pk": 15,
    "fields": {
        "user": [
            "niall@admin.com"
        ],
        "load_id": "YP3XZTCK82",
        "client_name": null,
        "client_phone_number": null,
        "payment_terms": null,
        "pick_up_location": "Quito, Ecuador",
        "pick_up_location_lat": "-0.18065320",
        "pick_up_location_lng": "-78.46783820",
        "drop_off_location": "Destin, FL, USA",
        "drop_off_location_lat": "30.39353370",
        "drop_off_location_lng": "-86.49578330",
        "pick_up_time": "2019-09-01T16:32:21.612Z",
        "drop_off_time": "2019-09-01T16:39:27.673Z",
        "vehicle_type": "LWB 3-4m",
        "weight": "400",
        "notes": "",
        "updated": "2019-08-08T18:46:22.193Z",
        "timestamp": "2019-07-23T19:55:42.728Z"
    }
},
{
    "model": "loads.load",
    "pk": 16,
    "fields": {
        "user": [
            "niall@admin.com"
        ],
        "load_id": "IETTNACKWR",
        "client_name": null,
        "client_phone_number": null,
        "payment_terms": null,
        "pick_up_location": "Xalapa, Ver., Mexico",
        "pick_up_location_lat": "19.54377510",
        "pick_up_location_lng": "-96.91018060",
        "drop_off_location": "Washington D.C., DC, USA",
        "drop_off_location_lat": "38.90719230",
        "drop_off_location_lng": "-77.03687070",
        "pick_up_time": "2019-09-01T16:32:21.612Z",
        "drop_off_time": "2019-09-01T16:39:27.673Z",
        "vehicle_type": "XL WB 4m+",
        "weight": "899",
        "notes": "",
        "updated": "2019-08-08T18:47:04.661Z",
        "timestamp": "2019-07-23T20:04:25.686Z"
    }
},
{
    "model": "loads.load",
    "pk": 17,
    "fields": {
        "user": [
            "niall783@gmail.com"
        ],
        "load_id": "P2PPAAE0LL",
        "client_name": null,
        "client_phone_number": null,
        "payment_terms": null,
        "pick_up_location": "San Sebasti\u00e1n, Spain",
        "pick_up_location_lat": "43.31833400",
        "pick_up_location_lng": "-1.98123130",
        "drop_off_location": "Xalapa, Ver., Mexico",
        "drop_off_location_lat": "19.54377510",
        "drop_off_location_lng": "-96.91018060",
        "pick_up_time": "2019-09-01T16:32:21.612Z",
        "drop_off_time": "2019-09-01T16:39:27.673Z",
        "vehicle_type": "XL WB 4m+",
        "weight": "1230",
        "notes": "",
        "updated": "2019-08-08T18:44:55.013Z",
        "timestamp": "2019-07-23T20:05:15.091Z"
    }
},
{
    "model": "loads.load",
    "pk": 18,
    "fields": {
        "user": [
            "niall783@gmail.com"
        ],
        "load_id": "I7UQRONV0F",
        "client_name": null,
        "client_phone_number": null,
        "payment_terms": null,
        "pick_up_location": "Sligo Ireland",
        "pick_up_location_lat": "54.27661030",
        "pick_up_location_lng": "-8.47608880",
        "drop_off_location": "Dublin",
        "drop_off_location_lat": "53.34980530",
        "drop_off_location_lng": "-6.26030970",
        "pick_up_time": "2019-09-01T16:32:21.612Z",
        "drop_off_time": "2019-09-01T16:39:27.673Z",
        "vehicle_type": "Midi or SWB 2 -2.4m",
        "weight": "200",
        "notes": "",
        "updated": "2019-08-08T18:47:38.094Z",
        "timestamp": "2019-07-23T20:24:48.646Z"
    }
},
{
    "model": "loads.load",
    "pk": 19,
    "fields": {
        "user": [
            "niall783@gmail.com"
        ],
        "load_id": "WP74CKVGI5",
        "client_name": null,
        "client_phone_number": null,
        "payment_terms": null,
        "pick_up_location": "Sligo Ireland",
        "pick_up_location_lat": "54.27661030",
        "pick_up_location_lng": "-8.47608880",
        "drop_off_location": "Dublin",
        "drop_off_location_lat": "53.34980530",
        "drop_off_location_lng": "-6.26030970",
        "pick_up_time": "2019-09-01T16:32:21.612Z",
        "drop_off_time": "2019-09-01T16:39:27.673Z",
        "vehicle_type": "Midi or SWB 2 -2.4m",
        "weight": "200",
        "notes": null,
        "updated": "2019-07-23T20:25:16.550Z",
        "timestamp": "2019-07-23T20:25:16.550Z"
    }
},
{
    "model": "loads.load",
    "pk": 20,
    "fields": {
        "user": [
            "niall783@gmail.com"
        ],
        "load_id": "WX15I86AFX",
        "client_name": null,
        "client_phone_number": null,
        "payment_terms": null,
        "pick_up_location": "Longford, UK",
        "pick_up_location_lat": "51.47952000",
        "pick_up_location_lng": "-0.45302760",
        "drop_off_location": "S\u00e3o Paulo, State of S\u00e3o Paulo, Brazil",
        "drop_off_location_lat": "-23.55051990",
        "drop_off_location_lng": "-46.63330940",
        "pick_up_time": "2019-09-01T16:32:21.612Z",
        "drop_off_time": "2019-09-01T16:39:27.673Z",
        "vehicle_type": "Luton With Tail Lift",
        "weight": "620",
        "notes": "",
        "updated": "2019-07-25T17:30:09.836Z",
        "timestamp": "2019-07-25T17:30:09.837Z"
    }
},
{
    "model": "loads.load",
    "pk": 21,
    "fields": {
        "user": [
            "niall783@gmail.com"
        ],
        "load_id": "22LFXQA9QO",
        "client_name": null,
        "client_phone_number": null,
        "payment_terms": null,
        "pick_up_location": "Denver, CO, USA",
        "pick_up_location_lat": "39.73923580",
        "pick_up_location_lng": "-104.99025100",
        "drop_off_location": "Destin, FL, USA",
        "drop_off_location_lat": "30.39353370",
        "drop_off_location_lng": "-86.49578330",
        "pick_up_time": "2019-09-01T16:32:21.612Z",
        "drop_off_time": "2019-09-01T16:39:27.673Z",
        "vehicle_type": "MWB 3m",
        "weight": "520",
        "notes": "",
        "updated": "2019-07-25T17:32:09.413Z",
        "timestamp": "2019-07-25T17:32:09.413Z"
    }
},
{
    "model": "loads.load",
    "pk": 22,
    "fields": {
        "user": [
            "niall783@gmail.com"
        ],
        "load_id": "LWLE4HK9V4",
        "client_name": null,
        "client_phone_number": null,
        "payment_terms": null,
        "pick_up_location": "Destin, FL, USA",
        "pick_up_location_lat": "30.39353370",
        "pick_up_location_lng": "-86.49578330",
        "drop_off_location": "Destin, FL, USA",
        "drop_off_location_lat": "30.39353370",
        "drop_off_location_lng": "-86.49578330",
        "pick_up_time": "2019-09-01T16:32:21.612Z",
        "drop_off_time": "2019-09-01T16:39:27.673Z",
        "vehicle_type": "Luton With Tail Lift",
        "weight": "400",
        "notes": "",
        "updated": "2019-07-25T17:32:31.665Z",
        "timestamp": "2019-07-25T17:32:31.665Z"
    }
},
{
    "model": "loads.load",
    "pk": 23,
    "fields": {
        "user": [
            "niall783@gmail.com"
        ],
        "load_id": "A1KY74NE5T",
        "client_name": null,
        "client_phone_number": null,
        "payment_terms": null,
        "pick_up_location": "DVP, Toronto, ON, Canada",
        "pick_up_location_lat": "43.70770500",
        "pick_up_location_lng": "-79.33118290",
        "drop_off_location": "Dv\u016fr Kr\u00e1lov\u00e9 nad Labem, Czechia",
        "drop_off_location_lat": "50.43172020",
        "drop_off_location_lng": "15.81402690",
        "pick_up_time": "2019-09-01T16:32:21.612Z",
        "drop_off_time": "2019-09-01T16:39:27.673Z",
        "vehicle_type": "Luton With Tail Lift",
        "weight": "100",
        "notes": "",
        "updated": "2019-07-25T17:34:10.274Z",
        "timestamp": "2019-07-25T17:34:10.274Z"
    }
},
{
    "model": "loads.load",
    "pk": 24,
    "fields": {
        "user": [
            "test3@email.com"
        ],
        "load_id": "9FTLB9RE8E",
        "client_name": null,
        "client_phone_number": null,
        "payment_terms": null,
        "pick_up_location": "Ireland",
        "pick_up_location_lat": "53.14236720",
        "pick_up_location_lng": "-7.69205360",
        "drop_off_location": "England",
        "drop_off_location_lat": "52.35551770",
        "drop_off_location_lng": "-1.17431970",
        "pick_up_time": "2019-09-01T16:32:21.612Z",
        "drop_off_time": "2019-09-01T16:39:27.673Z",
        "vehicle_type": "Small Van",
        "weight": "200",
        "notes": null,
        "updated": "2019-08-10T17:21:21.137Z",
        "timestamp": "2019-08-10T17:21:21.137Z"
    }
},
{
    "model": "loads.load",
    "pk": 25,
    "fields": {
        "user": [
            "test3@email.com"
        ],
        "load_id": "AE2KGEYOJ9",
        "client_name": null,
        "client_phone_number": null,
        "payment_terms": null,
        "pick_up_location": "Ireland",
        "pick_up_location_lat": "53.14236720",
        "pick_up_location_lng": "-7.69205360",
        "drop_off_location": "Wales",
        "drop_off_location_lat": "52.13066070",
        "drop_off_location_lng": "-3.78371170",
        "pick_up_time": "2019-09-01T16:32:21.612Z",
        "drop_off_time": "2019-09-01T16:39:27.673Z",
        "vehicle_type": "Small Van",
        "weight": "200",
        "notes": null,
        "updated": "2019-08-10T17:22:27.554Z",
        "timestamp": "2019-08-10T17:22:27.554Z"
    }
}
]
